%YAML 1.1
%TAG !u! tag:unity3d.com,2011:
--- !u!1001 &2973615699938019183
PrefabInstance:
  m_ObjectHideFlags: 0
  serializedVersion: 2
  m_Modification:
    m_TransformParent: {fileID: 0}
    m_Modifications:
    - target: {fileID: 246432760506695799, guid: 80315aafff4aabf498c9247f8210c44a,
        type: 3}
      propertyPath: m_Sprite
      value: 
      objectReference: {fileID: -5577691274000879924, guid: fecfdb4eb134b7a4fb3cf670175a9229,
        type: 3}
    - target: {fileID: 246432760506695799, guid: 80315aafff4aabf498c9247f8210c44a,
        type: 3}
      propertyPath: m_WasSpriteAssigned
      value: 1
      objectReference: {fileID: 0}
    - target: {fileID: 246432761013871728, guid: 80315aafff4aabf498c9247f8210c44a,
        type: 3}
      propertyPath: DamageVsSun
      value: 2
      objectReference: {fileID: 0}
    - target: {fileID: 246432761013871728, guid: 80315aafff4aabf498c9247f8210c44a,
        type: 3}
      propertyPath: DamageVsBugs
      value: 1
      objectReference: {fileID: 0}
    - target: {fileID: 246432761013871728, guid: 80315aafff4aabf498c9247f8210c44a,
        type: 3}
      propertyPath: DamageVsSports
      value: 1
      objectReference: {fileID: 0}
    - target: {fileID: 246432761013871728, guid: 80315aafff4aabf498c9247f8210c44a,
        type: 3}
      propertyPath: MyAmmoType
      value: 1
      objectReference: {fileID: 0}
    - target: {fileID: 246432761013871729, guid: 80315aafff4aabf498c9247f8210c44a,
        type: 3}
      propertyPath: m_Name
      value: Ammo_Focus
      objectReference: {fileID: 0}
    - target: {fileID: 246432761013871731, guid: 80315aafff4aabf498c9247f8210c44a,
        type: 3}
      propertyPath: m_LocalPosition.x
      value: 0
      objectReference: {fileID: 0}
    - target: {fileID: 246432761013871731, guid: 80315aafff4aabf498c9247f8210c44a,
        type: 3}
      propertyPath: m_LocalPosition.y
      value: 0
      objectReference: {fileID: 0}
    - target: {fileID: 246432761013871731, guid: 80315aafff4aabf498c9247f8210c44a,
        type: 3}
      propertyPath: m_LocalPosition.z
      value: 0
      objectReference: {fileID: 0}
    - target: {fileID: 246432761013871731, guid: 80315aafff4aabf498c9247f8210c44a,
        type: 3}
      propertyPath: m_LocalRotation.x
      value: 0
      objectReference: {fileID: 0}
    - target: {fileID: 246432761013871731, guid: 80315aafff4aabf498c9247f8210c44a,
        type: 3}
      propertyPath: m_LocalRotation.y
      value: 0
      objectReference: {fileID: 0}
    - target: {fileID: 246432761013871731, guid: 80315aafff4aabf498c9247f8210c44a,
        type: 3}
      propertyPath: m_LocalRotation.z
      value: 0
      objectReference: {fileID: 0}
    - target: {fileID: 246432761013871731, guid: 80315aafff4aabf498c9247f8210c44a,
        type: 3}
      propertyPath: m_LocalRotation.w
      value: 1
      objectReference: {fileID: 0}
    - target: {fileID: 246432761013871731, guid: 80315aafff4aabf498c9247f8210c44a,
        type: 3}
      propertyPath: m_RootOrder
      value: 0
      objectReference: {fileID: 0}
    - target: {fileID: 246432761013871731, guid: 80315aafff4aabf498c9247f8210c44a,
        type: 3}
      propertyPath: m_LocalEulerAnglesHint.x
      value: 0
      objectReference: {fileID: 0}
    - target: {fileID: 246432761013871731, guid: 80315aafff4aabf498c9247f8210c44a,
        type: 3}
      propertyPath: m_LocalEulerAnglesHint.y
      value: 0
      objectReference: {fileID: 0}
    - target: {fileID: 246432761013871731, guid: 80315aafff4aabf498c9247f8210c44a,
        type: 3}
      propertyPath: m_LocalEulerAnglesHint.z
      value: 0
      objectReference: {fileID: 0}
    m_RemovedComponents: []
  m_SourcePrefab: {fileID: 100100000, guid: 80315aafff4aabf498c9247f8210c44a, type: 3}
