%YAML 1.1
%TAG !u! tag:unity3d.com,2011:
--- !u!1 &3273348939472142328
GameObject:
  m_ObjectHideFlags: 0
  m_CorrespondingSourceObject: {fileID: 0}
  m_PrefabInstance: {fileID: 0}
  m_PrefabAsset: {fileID: 0}
  serializedVersion: 6
  m_Component:
  - component: {fileID: 7709956242701255437}
  - component: {fileID: 5730187226419682395}
  m_Layer: 31
  m_Name: TilemapPalette
  m_TagString: Untagged
  m_Icon: {fileID: 0}
  m_NavMeshLayer: 0
  m_StaticEditorFlags: 0
  m_IsActive: 1
--- !u!4 &7709956242701255437
Transform:
  m_ObjectHideFlags: 0
  m_CorrespondingSourceObject: {fileID: 0}
  m_PrefabInstance: {fileID: 0}
  m_PrefabAsset: {fileID: 0}
  m_GameObject: {fileID: 3273348939472142328}
  m_LocalRotation: {x: 0, y: 0, z: 0, w: 1}
  m_LocalPosition: {x: 0, y: 0, z: 0}
  m_LocalScale: {x: 1, y: 1, z: 1}
  m_Children:
  - {fileID: 5308501785941459029}
  m_Father: {fileID: 0}
  m_RootOrder: 0
  m_LocalEulerAnglesHint: {x: 0, y: 0, z: 0}
--- !u!156049354 &5730187226419682395
Grid:
  m_ObjectHideFlags: 0
  m_CorrespondingSourceObject: {fileID: 0}
  m_PrefabInstance: {fileID: 0}
  m_PrefabAsset: {fileID: 0}
  m_GameObject: {fileID: 3273348939472142328}
  m_Enabled: 1
  m_CellSize: {x: 1, y: 1, z: 0}
  m_CellGap: {x: 0, y: 0, z: 0}
  m_CellLayout: 0
  m_CellSwizzle: 0
--- !u!1 &4572438341726467962
GameObject:
  m_ObjectHideFlags: 0
  m_CorrespondingSourceObject: {fileID: 0}
  m_PrefabInstance: {fileID: 0}
  m_PrefabAsset: {fileID: 0}
  serializedVersion: 6
  m_Component:
  - component: {fileID: 5308501785941459029}
  - component: {fileID: 3710300017677652871}
  - component: {fileID: 6251611663363169994}
  m_Layer: 31
  m_Name: Layer1
  m_TagString: Untagged
  m_Icon: {fileID: 0}
  m_NavMeshLayer: 0
  m_StaticEditorFlags: 0
  m_IsActive: 1
--- !u!4 &5308501785941459029
Transform:
  m_ObjectHideFlags: 0
  m_CorrespondingSourceObject: {fileID: 0}
  m_PrefabInstance: {fileID: 0}
  m_PrefabAsset: {fileID: 0}
  m_GameObject: {fileID: 4572438341726467962}
  m_LocalRotation: {x: -0, y: -0, z: -0, w: 1}
  m_LocalPosition: {x: 0, y: 0, z: 0}
  m_LocalScale: {x: 1, y: 1, z: 1}
  m_Children: []
  m_Father: {fileID: 7709956242701255437}
  m_RootOrder: 0
  m_LocalEulerAnglesHint: {x: 0, y: 0, z: 0}
--- !u!1839735485 &3710300017677652871
Tilemap:
  m_ObjectHideFlags: 0
  m_CorrespondingSourceObject: {fileID: 0}
  m_PrefabInstance: {fileID: 0}
  m_PrefabAsset: {fileID: 0}
  m_GameObject: {fileID: 4572438341726467962}
  m_Enabled: 1
  m_Tiles:
  - first: {x: -11, y: -1, z: 0}
    second:
      serializedVersion: 2
      m_TileIndex: 15
      m_TileSpriteIndex: 15
      m_TileMatrixIndex: 0
      m_TileColorIndex: 1
      m_TileObjectToInstantiateIndex: 65535
      m_AllTileFlags: 1073741825
  - first: {x: -10, y: -1, z: 0}
    second:
      serializedVersion: 2
      m_TileIndex: 13
      m_TileSpriteIndex: 13
      m_TileMatrixIndex: 0
      m_TileColorIndex: 1
      m_TileObjectToInstantiateIndex: 65535
      m_AllTileFlags: 1073741825
  - first: {x: -9, y: -1, z: 0}
    second:
      serializedVersion: 2
      m_TileIndex: 1
      m_TileSpriteIndex: 1
      m_TileMatrixIndex: 0
      m_TileColorIndex: 1
      m_TileObjectToInstantiateIndex: 65535
      m_AllTileFlags: 1073741825
  - first: {x: -8, y: -1, z: 0}
    second:
      serializedVersion: 2
      m_TileIndex: 18
      m_TileSpriteIndex: 18
      m_TileMatrixIndex: 0
      m_TileColorIndex: 1
      m_TileObjectToInstantiateIndex: 65535
      m_AllTileFlags: 1073741825
  - first: {x: -7, y: -1, z: 0}
    second:
      serializedVersion: 2
      m_TileIndex: 19
      m_TileSpriteIndex: 19
      m_TileMatrixIndex: 0
      m_TileColorIndex: 1
      m_TileObjectToInstantiateIndex: 65535
      m_AllTileFlags: 1073741825
  - first: {x: -16, y: 0, z: 0}
    second:
      serializedVersion: 2
      m_TileIndex: 21
      m_TileSpriteIndex: 21
      m_TileMatrixIndex: 0
      m_TileColorIndex: 1
      m_TileObjectToInstantiateIndex: 65535
      m_AllTileFlags: 1073741825
  - first: {x: -15, y: 0, z: 0}
    second:
      serializedVersion: 2
      m_TileIndex: 22
      m_TileSpriteIndex: 22
      m_TileMatrixIndex: 0
      m_TileColorIndex: 1
      m_TileObjectToInstantiateIndex: 65535
      m_AllTileFlags: 1073741825
  - first: {x: -14, y: 0, z: 0}
    second:
      serializedVersion: 2
      m_TileIndex: 26
      m_TileSpriteIndex: 26
      m_TileMatrixIndex: 0
      m_TileColorIndex: 1
      m_TileObjectToInstantiateIndex: 65535
      m_AllTileFlags: 1073741825
  - first: {x: -11, y: 0, z: 0}
    second:
      serializedVersion: 2
      m_TileIndex: 14
      m_TileSpriteIndex: 14
      m_TileMatrixIndex: 0
      m_TileColorIndex: 1
      m_TileObjectToInstantiateIndex: 65535
      m_AllTileFlags: 1073741825
  - first: {x: -10, y: 0, z: 0}
    second:
      serializedVersion: 2
      m_TileIndex: 0
      m_TileSpriteIndex: 0
      m_TileMatrixIndex: 0
      m_TileColorIndex: 1
      m_TileObjectToInstantiateIndex: 65535
      m_AllTileFlags: 1073741825
  - first: {x: -9, y: 0, z: 0}
    second:
      serializedVersion: 2
      m_TileIndex: 2
      m_TileSpriteIndex: 2
      m_TileMatrixIndex: 0
      m_TileColorIndex: 1
      m_TileObjectToInstantiateIndex: 65535
      m_AllTileFlags: 1073741825
  - first: {x: -8, y: 0, z: 0}
    second:
      serializedVersion: 2
      m_TileIndex: 16
      m_TileSpriteIndex: 16
      m_TileMatrixIndex: 0
      m_TileColorIndex: 1
      m_TileObjectToInstantiateIndex: 65535
      m_AllTileFlags: 1073741825
  - first: {x: -7, y: 0, z: 0}
    second:
      serializedVersion: 2
      m_TileIndex: 17
      m_TileSpriteIndex: 17
      m_TileMatrixIndex: 0
      m_TileColorIndex: 1
      m_TileObjectToInstantiateIndex: 65535
      m_AllTileFlags: 1073741825
  - first: {x: -16, y: 1, z: 0}
    second:
      serializedVersion: 2
      m_TileIndex: 24
      m_TileSpriteIndex: 24
      m_TileMatrixIndex: 0
      m_TileColorIndex: 1
      m_TileObjectToInstantiateIndex: 65535
      m_AllTileFlags: 1073741825
  - first: {x: -15, y: 1, z: 0}
    second:
      serializedVersion: 2
      m_TileIndex: 25
      m_TileSpriteIndex: 25
      m_TileMatrixIndex: 0
      m_TileColorIndex: 1
      m_TileObjectToInstantiateIndex: 65535
      m_AllTileFlags: 1073741825
  - first: {x: -11, y: 1, z: 0}
    second:
      serializedVersion: 2
      m_TileIndex: 7
      m_TileSpriteIndex: 7
      m_TileMatrixIndex: 0
      m_TileColorIndex: 1
      m_TileObjectToInstantiateIndex: 65535
      m_AllTileFlags: 1073741825
  - first: {x: -10, y: 1, z: 0}
    second:
      serializedVersion: 2
      m_TileIndex: 9
      m_TileSpriteIndex: 9
      m_TileMatrixIndex: 0
      m_TileColorIndex: 1
      m_TileObjectToInstantiateIndex: 65535
      m_AllTileFlags: 1073741825
  - first: {x: -9, y: 1, z: 0}
    second:
      serializedVersion: 2
      m_TileIndex: 11
      m_TileSpriteIndex: 11
      m_TileMatrixIndex: 0
      m_TileColorIndex: 1
      m_TileObjectToInstantiateIndex: 65535
      m_AllTileFlags: 1073741825
  - first: {x: -8, y: 1, z: 0}
    second:
      serializedVersion: 2
      m_TileIndex: 4
      m_TileSpriteIndex: 4
      m_TileMatrixIndex: 0
      m_TileColorIndex: 1
      m_TileObjectToInstantiateIndex: 65535
      m_AllTileFlags: 1073741825
  - first: {x: -7, y: 1, z: 0}
    second:
      serializedVersion: 2
      m_TileIndex: 3
      m_TileSpriteIndex: 3
      m_TileMatrixIndex: 0
      m_TileColorIndex: 1
      m_TileObjectToInstantiateIndex: 65535
      m_AllTileFlags: 1073741825
  - first: {x: -16, y: 2, z: 0}
    second:
      serializedVersion: 2
      m_TileIndex: 20
      m_TileSpriteIndex: 20
      m_TileMatrixIndex: 0
      m_TileColorIndex: 1
      m_TileObjectToInstantiateIndex: 65535
      m_AllTileFlags: 1073741825
  - first: {x: -15, y: 2, z: 0}
    second:
      serializedVersion: 2
      m_TileIndex: 23
      m_TileSpriteIndex: 23
      m_TileMatrixIndex: 0
      m_TileColorIndex: 1
      m_TileObjectToInstantiateIndex: 65535
      m_AllTileFlags: 1073741825
  - first: {x: -11, y: 2, z: 0}
    second:
      serializedVersion: 2
      m_TileIndex: 8
      m_TileSpriteIndex: 8
      m_TileMatrixIndex: 0
      m_TileColorIndex: 1
      m_TileObjectToInstantiateIndex: 65535
      m_AllTileFlags: 1073741825
  - first: {x: -10, y: 2, z: 0}
    second:
      serializedVersion: 2
      m_TileIndex: 10
      m_TileSpriteIndex: 10
      m_TileMatrixIndex: 0
      m_TileColorIndex: 1
      m_TileObjectToInstantiateIndex: 65535
      m_AllTileFlags: 1073741825
  - first: {x: -9, y: 2, z: 0}
    second:
      serializedVersion: 2
      m_TileIndex: 12
      m_TileSpriteIndex: 12
      m_TileMatrixIndex: 0
      m_TileColorIndex: 1
      m_TileObjectToInstantiateIndex: 65535
      m_AllTileFlags: 1073741825
  - first: {x: -8, y: 2, z: 0}
    second:
      serializedVersion: 2
      m_TileIndex: 6
      m_TileSpriteIndex: 6
      m_TileMatrixIndex: 0
      m_TileColorIndex: 1
      m_TileObjectToInstantiateIndex: 65535
      m_AllTileFlags: 1073741825
  - first: {x: -7, y: 2, z: 0}
    second:
      serializedVersion: 2
      m_TileIndex: 5
      m_TileSpriteIndex: 5
      m_TileMatrixIndex: 0
      m_TileColorIndex: 1
      m_TileObjectToInstantiateIndex: 65535
      m_AllTileFlags: 1073741825
  m_AnimatedTiles: {}
  m_TileAssetArray:
  - m_RefCount: 1
    m_Data: {fileID: 11400000, guid: 66d8626be015bcf4a863fafa29bc75eb, type: 2}
  - m_RefCount: 1
    m_Data: {fileID: 11400000, guid: 95af5f261475ba944bb0b7c9e3301da2, type: 2}
  - m_RefCount: 1
    m_Data: {fileID: 11400000, guid: 7620916767039014fb1d6f540ce39a0b, type: 2}
  - m_RefCount: 1
    m_Data: {fileID: 11400000, guid: bb2d8ce49982a9949bcb304a921150cd, type: 2}
  - m_RefCount: 1
    m_Data: {fileID: 11400000, guid: 8a7843d262d7ce848bbc47c7e17e2804, type: 2}
  - m_RefCount: 1
    m_Data: {fileID: 11400000, guid: 868626e50a319ec47b30d485e9f7680c, type: 2}
  - m_RefCount: 1
    m_Data: {fileID: 11400000, guid: 82496a720ee2f0549ac6a4fe0bc5b917, type: 2}
  - m_RefCount: 1
    m_Data: {fileID: 11400000, guid: 04b7f8043bbce6d4d9ffed305cc63fc6, type: 2}
  - m_RefCount: 1
    m_Data: {fileID: 11400000, guid: 7dc007d0d74945145a31ebdbba082b53, type: 2}
  - m_RefCount: 1
    m_Data: {fileID: 11400000, guid: d9ff5af2cff7c26499fed097eff62b1c, type: 2}
  - m_RefCount: 1
    m_Data: {fileID: 11400000, guid: 03159e777824fd242a04ae7268ae879e, type: 2}
  - m_RefCount: 1
    m_Data: {fileID: 11400000, guid: 050393f3158219a4faac067515ae1540, type: 2}
  - m_RefCount: 1
    m_Data: {fileID: 11400000, guid: 55c0acacb18e2244187a145f96376d5f, type: 2}
  - m_RefCount: 1
    m_Data: {fileID: 11400000, guid: d734761351be8da4b8f847305e6defad, type: 2}
  - m_RefCount: 1
    m_Data: {fileID: 11400000, guid: e6ddfbbab36018d4fa17619d02eff75c, type: 2}
  - m_RefCount: 1
    m_Data: {fileID: 11400000, guid: bf588e9b8258f43468c516fd26f761a7, type: 2}
  - m_RefCount: 1
    m_Data: {fileID: 11400000, guid: c980618d5e89eea4484d51a82d88a755, type: 2}
  - m_RefCount: 1
    m_Data: {fileID: 11400000, guid: 421472350ac841d4bba2e2453e412da1, type: 2}
  - m_RefCount: 1
    m_Data: {fileID: 11400000, guid: 38e5480858ef37f438ee03cc082d0e40, type: 2}
  - m_RefCount: 1
    m_Data: {fileID: 11400000, guid: 351db4df9d2ba07478a49cedb1d05a0c, type: 2}
  - m_RefCount: 1
    m_Data: {fileID: 11400000, guid: 5dba4774472759c458ab9e9ef4a18a24, type: 2}
  - m_RefCount: 1
    m_Data: {fileID: 11400000, guid: 1dda6bec84572ac4c917a1747f98168d, type: 2}
  - m_RefCount: 1
    m_Data: {fileID: 11400000, guid: cf13fb2c91075af4da10b872bb3386ce, type: 2}
  - m_RefCount: 1
    m_Data: {fileID: 11400000, guid: 20afb7d1567d91241b33ddafc1ad4b41, type: 2}
  - m_RefCount: 1
    m_Data: {fileID: 11400000, guid: d589ca9515827e74a8611daaffd11152, type: 2}
  - m_RefCount: 1
    m_Data: {fileID: 11400000, guid: 8792ab563a2f47f47bc8b02ed577729b, type: 2}
  - m_RefCount: 1
    m_Data: {fileID: 11400000, guid: a287f0ac3dfc2c149b1365bd63283201, type: 2}
  m_TileSpriteArray:
  - m_RefCount: 1
    m_Data: {fileID: -5074158333559146599, guid: fecfdb4eb134b7a4fb3cf670175a9229,
      type: 3}
  - m_RefCount: 1
    m_Data: {fileID: 238422606761223415, guid: fecfdb4eb134b7a4fb3cf670175a9229, type: 3}
  - m_RefCount: 1
    m_Data: {fileID: 740029136719632917, guid: fecfdb4eb134b7a4fb3cf670175a9229, type: 3}
  - m_RefCount: 1
    m_Data: {fileID: 4840237917059050997, guid: fecfdb4eb134b7a4fb3cf670175a9229,
      type: 3}
  - m_RefCount: 1
    m_Data: {fileID: 6325176655695623263, guid: fecfdb4eb134b7a4fb3cf670175a9229,
      type: 3}
  - m_RefCount: 1
    m_Data: {fileID: -4376654732018991489, guid: fecfdb4eb134b7a4fb3cf670175a9229,
      type: 3}
  - m_RefCount: 1
    m_Data: {fileID: 177990935020221182, guid: fecfdb4eb134b7a4fb3cf670175a9229, type: 3}
  - m_RefCount: 1
    m_Data: {fileID: -221382791233854495, guid: fecfdb4eb134b7a4fb3cf670175a9229,
      type: 3}
  - m_RefCount: 1
    m_Data: {fileID: -5176366946418926668, guid: fecfdb4eb134b7a4fb3cf670175a9229,
      type: 3}
  - m_RefCount: 1
    m_Data: {fileID: 6860393488758576247, guid: fecfdb4eb134b7a4fb3cf670175a9229,
      type: 3}
  - m_RefCount: 1
    m_Data: {fileID: 8189505167497578227, guid: fecfdb4eb134b7a4fb3cf670175a9229,
      type: 3}
  - m_RefCount: 1
    m_Data: {fileID: 4614244649951357409, guid: fecfdb4eb134b7a4fb3cf670175a9229,
      type: 3}
  - m_RefCount: 1
    m_Data: {fileID: -9034666339791632144, guid: fecfdb4eb134b7a4fb3cf670175a9229,
      type: 3}
  - m_RefCount: 1
    m_Data: {fileID: 3740566086435161309, guid: fecfdb4eb134b7a4fb3cf670175a9229,
      type: 3}
  - m_RefCount: 1
    m_Data: {fileID: 5577934545848081700, guid: fecfdb4eb134b7a4fb3cf670175a9229,
      type: 3}
  - m_RefCount: 1
    m_Data: {fileID: 3873372377828403926, guid: fecfdb4eb134b7a4fb3cf670175a9229,
      type: 3}
  - m_RefCount: 1
    m_Data: {fileID: -2360262813911455865, guid: fecfdb4eb134b7a4fb3cf670175a9229,
      type: 3}
  - m_RefCount: 1
    m_Data: {fileID: 8443905846688626620, guid: fecfdb4eb134b7a4fb3cf670175a9229,
      type: 3}
  - m_RefCount: 1
    m_Data: {fileID: -7949668333554681944, guid: fecfdb4eb134b7a4fb3cf670175a9229,
      type: 3}
  - m_RefCount: 1
    m_Data: {fileID: -1387221291282245930, guid: fecfdb4eb134b7a4fb3cf670175a9229,
      type: 3}
  - m_RefCount: 1
    m_Data: {fileID: 21300000, guid: a805db767b5b15e4ba0978a5ef1cae9d, type: 3}
  - m_RefCount: 1
    m_Data: {fileID: 7391956429642214263, guid: fecfdb4eb134b7a4fb3cf670175a9229,
      type: 3}
  - m_RefCount: 1
    m_Data: {fileID: -3961256202614044314, guid: fecfdb4eb134b7a4fb3cf670175a9229,
      type: 3}
  - m_RefCount: 1
    m_Data: {fileID: 3114558785215210381, guid: a805db767b5b15e4ba0978a5ef1cae9d,
      type: 3}
  - m_RefCount: 1
    m_Data: {fileID: -4725877272224312447, guid: a805db767b5b15e4ba0978a5ef1cae9d,
      type: 3}
  - m_RefCount: 1
    m_Data: {fileID: -6574770097832740503, guid: a805db767b5b15e4ba0978a5ef1cae9d,
      type: 3}
  - m_RefCount: 1
    m_Data: {fileID: 8260407627515885028, guid: fecfdb4eb134b7a4fb3cf670175a9229,
      type: 3}
  m_TileMatrixArray:
  - m_RefCount: 27
    m_Data:
      e00: 1
      e01: 0
      e02: 0
      e03: 0
      e10: 0
      e11: 1
      e12: 0
      e13: 0
      e20: 0
      e21: 0
      e22: 1
      e23: 0
      e30: 0
      e31: 0
      e32: 0
      e33: 1
  m_TileColorArray:
  - m_RefCount: 0
    m_Data: {r: 5.2206554, g: 5.2206554, b: 5.2206554, a: 5.2206554}
  - m_RefCount: 27
    m_Data: {r: 1, g: 1, b: 1, a: 1}
  m_TileObjectToInstantiateArray: []
  m_AnimationFrameRate: 1
  m_Color: {r: 1, g: 1, b: 1, a: 1}
  m_Origin: {x: -16, y: -1, z: 0}
  m_Size: {x: 18, y: 4, z: 1}
  m_TileAnchor: {x: 0.5, y: 0.5, z: 0}
  m_TileOrientation: 0
  m_TileOrientationMatrix:
    e00: 1
    e01: 0
    e02: 0
    e03: 0
    e10: 0
    e11: 1
    e12: 0
    e13: 0
    e20: 0
    e21: 0
    e22: 1
    e23: 0
    e30: 0
    e31: 0
    e32: 0
    e33: 1
--- !u!483693784 &6251611663363169994
TilemapRenderer:
  m_ObjectHideFlags: 0
  m_CorrespondingSourceObject: {fileID: 0}
  m_PrefabInstance: {fileID: 0}
  m_PrefabAsset: {fileID: 0}
  m_GameObject: {fileID: 4572438341726467962}
  m_Enabled: 0
  m_CastShadows: 0
  m_ReceiveShadows: 0
  m_DynamicOccludee: 0
  m_MotionVectors: 1
  m_LightProbeUsage: 0
  m_ReflectionProbeUsage: 0
  m_RayTracingMode: 0
  m_RenderingLayerMask: 1
  m_RendererPriority: 0
  m_Materials:
  - {fileID: 10754, guid: 0000000000000000f000000000000000, type: 0}
  m_StaticBatchInfo:
    firstSubMesh: 0
    subMeshCount: 0
  m_StaticBatchRoot: {fileID: 0}
  m_ProbeAnchor: {fileID: 0}
  m_LightProbeVolumeOverride: {fileID: 0}
  m_ScaleInLightmap: 1
  m_ReceiveGI: 1
  m_PreserveUVs: 0
  m_IgnoreNormalsForChartDetection: 0
  m_ImportantGI: 0
  m_StitchLightmapSeams: 1
  m_SelectedEditorRenderState: 0
  m_MinimumChartSize: 4
  m_AutoUVMaxDistance: 0.5
  m_AutoUVMaxAngle: 89
  m_LightmapParameters: {fileID: 0}
  m_SortingLayerID: 0
  m_SortingLayer: 0
  m_SortingOrder: 0
  m_ChunkSize: {x: 32, y: 32, z: 32}
  m_ChunkCullingBounds: {x: 0, y: 0, z: 0}
  m_MaxChunkCount: 16
  m_MaxFrameAge: 16
  m_SortOrder: 0
  m_Mode: 0
  m_DetectChunkCullingBounds: 0
  m_MaskInteraction: 0
--- !u!114 &-4342417711216154649
MonoBehaviour:
  m_ObjectHideFlags: 0
  m_CorrespondingSourceObject: {fileID: 0}
  m_PrefabInstance: {fileID: 0}
  m_PrefabAsset: {fileID: 0}
  m_GameObject: {fileID: 0}
  m_Enabled: 1
  m_EditorHideFlags: 0
  m_Script: {fileID: 12395, guid: 0000000000000000e000000000000000, type: 0}
  m_Name: Palette Settings
  m_EditorClassIdentifier: 
  cellSizing: 0
